\relax 
\citation{miller2006hurricane}
\citation{miller2006hurricane}
\citation{miller2006hurricane}
\citation{Whitehouse}
\citation{Whitehouse}
\citation{miller2006hurricane}
\citation{Noam2004}
\@writefile{toc}{\contentsline {section}{\numberline {I}Introduction}{1}}
\@writefile{toc}{\contentsline {subsection}{\numberline {\unhbox \voidb@x \hbox {I-A}}Current Solutions}{1}}
\citation{Richtel2009}
\citation{3DR}
\@writefile{toc}{\contentsline {section}{\numberline {II}Contributions}{2}}
\@writefile{toc}{\contentsline {section}{\numberline {III}Methodology}{2}}
\@writefile{lof}{\contentsline {figure}{\numberline {1}{\ignorespaces System Overview}}{2}}
\newlabel{fig:system}{{1}{2}}
\@writefile{toc}{\contentsline {subsection}{\numberline {\unhbox \voidb@x \hbox {III-A}}Hardware}{2}}
\@writefile{toc}{\contentsline {subsubsection}{\numberline {\unhbox \voidb@x \hbox {III-A}1}Pixhawk Autopilot}{2}}
\citation{QGroundControl2014}
\citation{Meier2011}
\citation{ArduCopter}
\citation{ArduCopter}
\citation{Horne2013}
\citation{U-blox2012}
\citation{Sanner1999}
\citation{Tridgell}
\@writefile{lof}{\contentsline {figure}{\numberline {2}{\ignorespaces UAVs in testing configuration.}}{3}}
\newlabel{fig:uav_testing}{{2}{3}}
\@writefile{toc}{\contentsline {subsubsection}{\numberline {\unhbox \voidb@x \hbox {III-A}2}Telemetry}{3}}
\@writefile{toc}{\contentsline {subsubsection}{\numberline {\unhbox \voidb@x \hbox {III-A}3}GPS}{3}}
\@writefile{toc}{\contentsline {section}{\numberline {IV}System Implementation}{3}}
\@writefile{toc}{\contentsline {subsection}{\numberline {\unhbox \voidb@x \hbox {IV-A}}Software}{3}}
\citation{Gamma1994}
\newlabel{drone_loop}{{3a}{4}}
\newlabel{sub@drone_loop}{{(a)}{a}}
\newlabel{periodic_loop}{{3b}{4}}
\newlabel{sub@periodic_loop}{{(b)}{b}}
\@writefile{lof}{\contentsline {figure}{\numberline {3}{\ignorespaces Main Control Loops}}{4}}
\@writefile{lof}{\contentsline {subfigure}{\numberline{(a)}{\ignorespaces {Drone Control Loop}}}{4}}
\@writefile{lof}{\contentsline {subfigure}{\numberline{(b)}{\ignorespaces {Periodic Control Loop}}}{4}}
\newlabel{fig_control_loops}{{3}{4}}
\@writefile{toc}{\contentsline {subsection}{\numberline {\unhbox \voidb@x \hbox {IV-B}}Python Server}{4}}
\@writefile{toc}{\contentsline {subsection}{\numberline {\unhbox \voidb@x \hbox {IV-C}}Control Algorithm}{4}}
\@writefile{lof}{\contentsline {figure}{\numberline {4}{\ignorespaces State Diagram}}{4}}
\newlabel{fig:state_diagram}{{4}{4}}
\citation{MacDonald1979}
\citation{MacDonald1979}
\@writefile{lof}{\contentsline {figure}{\numberline {5}{\ignorespaces UAV formation with $N = 7$}}{5}}
\newlabel{fig:cell_grid}{{5}{5}}
\@writefile{toc}{\contentsline {subsubsection}{\numberline {\unhbox \voidb@x \hbox {IV-C}1}FSM Class}{5}}
\@writefile{toc}{\contentsline {subsubsection}{\numberline {\unhbox \voidb@x \hbox {IV-C}2}Clustering}{5}}
\newlabel{eq:reuse_dist}{{2}{5}}
\newlabel{eq:lat}{{4}{5}}
\newlabel{eq:lon}{{5}{5}}
\@writefile{lof}{\contentsline {figure}{\numberline {6}{\ignorespaces Cell layout with cluster size $N = 7$}}{6}}
\newlabel{fig:cell_detail}{{6}{6}}
\@writefile{toc}{\contentsline {subsection}{\numberline {\unhbox \voidb@x \hbox {IV-D}}Frontend Interface}{6}}
\newlabel{launch_step_1}{{7a}{6}}
\newlabel{sub@launch_step_1}{{(a)}{a}}
\newlabel{launch_step_2}{{7b}{6}}
\newlabel{sub@launch_step_2}{{(b)}{b}}
\newlabel{launch_step_2a}{{7c}{6}}
\newlabel{sub@launch_step_2a}{{(c)}{c}}
\newlabel{launch_step_3}{{7d}{6}}
\newlabel{sub@launch_step_3}{{(d)}{d}}
\@writefile{lof}{\contentsline {figure}{\numberline {7}{\ignorespaces UAV launch sequence and configuration procedure.}}{6}}
\@writefile{lof}{\contentsline {subfigure}{\numberline{(a)}{\ignorespaces {UAVs ready for launch.}}}{6}}
\@writefile{lof}{\contentsline {subfigure}{\numberline{(b)}{\ignorespaces {UAVs at configuration altitudes.}}}{6}}
\@writefile{lof}{\contentsline {subfigure}{\numberline{(c)}{\ignorespaces {UAVs at configuration altitudes.}}}{6}}
\@writefile{lof}{\contentsline {subfigure}{\numberline{(d)}{\ignorespaces {UAVs in final formation.}}}{6}}
\newlabel{fig_launch}{{7}{6}}
\@writefile{toc}{\contentsline {subsection}{\numberline {\unhbox \voidb@x \hbox {IV-E}}Interface Controls}{6}}
\@writefile{toc}{\contentsline {subsection}{\numberline {\unhbox \voidb@x \hbox {IV-F}}Process Control}{6}}
\@writefile{toc}{\contentsline {subsection}{\numberline {\unhbox \voidb@x \hbox {IV-G}}Launch Sequence}{6}}
\@writefile{lof}{\contentsline {figure}{\numberline {8}{\ignorespaces HTML frontend interface.}}{7}}
\newlabel{fig:interface}{{8}{7}}
\@writefile{toc}{\contentsline {subsection}{\numberline {\unhbox \voidb@x \hbox {IV-H}}Fail-safes}{7}}
\@writefile{toc}{\contentsline {section}{\numberline {V}Results}{7}}
\@writefile{toc}{\contentsline {subsection}{\numberline {\unhbox \voidb@x \hbox {V-A}}System Performance}{7}}
\@writefile{lof}{\contentsline {figure}{\numberline {9}{\ignorespaces Available manual overrides.}}{7}}
\newlabel{fig:interface_detail}{{9}{7}}
\@writefile{toc}{\contentsline {subsubsection}{\numberline {\unhbox \voidb@x \hbox {V-A}1}HTML Frontend Interface}{7}}
\@writefile{toc}{\contentsline {subsubsection}{\numberline {\unhbox \voidb@x \hbox {V-A}2}Remote Access}{7}}
\citation{FAA}
\citation{Washington}
\bibstyle{IEEEtran}
\bibdata{./IEEEabrv,./thesis}
\bibcite{miller2006hurricane}{1}
\bibcite{Whitehouse}{2}
\bibcite{Noam2004}{3}
\bibcite{Richtel2009}{4}
\bibcite{3DR}{5}
\bibcite{QGroundControl2014}{6}
\bibcite{Meier2011}{7}
\bibcite{ArduCopter}{8}
\bibcite{Horne2013}{9}
\bibcite{U-blox2012}{10}
\bibcite{Sanner1999}{11}
\bibcite{Tridgell}{12}
\bibcite{Gamma1994}{13}
\bibcite{MacDonald1979}{14}
\bibcite{FAA}{15}
\bibcite{Washington}{16}
\@writefile{toc}{\contentsline {subsubsection}{\numberline {\unhbox \voidb@x \hbox {V-A}3}Hardware Performance}{8}}
\@writefile{toc}{\contentsline {subsection}{\numberline {\unhbox \voidb@x \hbox {V-B}}The State of UAVs in the United States and the FAA}{8}}
\@writefile{toc}{\contentsline {subsection}{\numberline {\unhbox \voidb@x \hbox {V-C}}Future Work}{8}}
\@writefile{toc}{\contentsline {section}{\numberline {VI}Conclusion}{8}}
\@writefile{toc}{\contentsline {section}{References}{8}}
