\relax 
\abx@aux@sortscheme{cms}
\@writefile{toc}{\boolfalse {citerequest}\boolfalse {citetracker}\boolfalse {pagetracker}\boolfalse {backtracker}\relax }
\@writefile{lof}{\boolfalse {citerequest}\boolfalse {citetracker}\boolfalse {pagetracker}\boolfalse {backtracker}\relax }
\@writefile{lot}{\boolfalse {citerequest}\boolfalse {citetracker}\boolfalse {pagetracker}\boolfalse {backtracker}\relax }
\select@language{english}
\@writefile{toc}{\defcounter {refsection}{0}\relax }\@writefile{toc}{\select@language{english}}
\@writefile{lof}{\defcounter {refsection}{0}\relax }\@writefile{lof}{\select@language{english}}
\@writefile{lot}{\defcounter {refsection}{0}\relax }\@writefile{lot}{\select@language{english}}
\@writefile{toc}{\defcounter {refsection}{0}\relax }\@writefile{toc}{\contentsline {chapter}{DEDICATION}{iv}}
\@writefile{toc}{\defcounter {refsection}{0}\relax }\@writefile{toc}{\contentsline {chapter}{ACKNOWLEDGMENTS}{v}}
\tocstyle@set@width {unum}{toc}{}{30.02747pt}
\tocstyle@set@width {num}{toc}{0}{13.5pt}
\tocstyle@set@width {skip}{toc}{0}{0.0pt}
\tocstyle@set@width {num}{toc}{1}{20.88867pt}
\tocstyle@set@width {skip}{toc}{1}{13.5pt}
\tocstyle@set@width {num}{toc}{2}{30.02747pt}
\tocstyle@set@width {skip}{toc}{2}{34.38867pt}
\tocstyle@set@width {unum}{lof}{}{26.76361pt}
\tocstyle@set@width {num}{lof}{1}{26.76361pt}
\tocstyle@set@width {skip}{lof}{1}{17.62482pt}
\@writefile{toc}{\defcounter {refsection}{0}\relax }\@writefile{toc}{\contentsline {chapter}{LIST OF FIGURES}{ix}}
\abx@aux@cite{miller2006hurricane}
\@writefile{toc}{\defcounter {refsection}{0}\relax }\@writefile{toc}{\contentsline {chapter}{\numberline {1}INTRODUCTION}{1}}
\@writefile{lof}{\defcounter {refsection}{0}\relax }\@writefile{lof}{\addvspace {10\p@ }}
\@writefile{lot}{\defcounter {refsection}{0}\relax }\@writefile{lot}{\addvspace {10\p@ }}
\abx@aux@page{8}{1}
\abx@aux@page{9}{1}
\abx@aux@page{11}{1}
\abx@aux@cite{Whitehouse}
\abx@aux@cite{Noam2004}
\abx@aux@page{12}{2}
\abx@aux@page{13}{2}
\abx@aux@page{14}{2}
\abx@aux@page{15}{2}
\abx@aux@page{17}{2}
\abx@aux@page{19}{2}
\abx@aux@page{20}{2}
\abx@aux@cite{FEMA}
\abx@aux@cite{UN}
\abx@aux@cite{Fultron}
\abx@aux@page{21}{3}
\abx@aux@page{22}{3}
\abx@aux@page{24}{3}
\abx@aux@page{26}{3}
\@writefile{toc}{\defcounter {refsection}{0}\relax }\@writefile{toc}{\contentsline {section}{\numberline {1.1}Communication}{3}}
\abx@aux@cite{Intelsat}
\abx@aux@page{27}{4}
\abx@aux@page{28}{4}
\@writefile{toc}{\defcounter {refsection}{0}\relax }\@writefile{toc}{\contentsline {subsection}{\numberline {1.1.1}Satellite Communications}{4}}
\abx@aux@page{29}{4}
\@writefile{toc}{\defcounter {refsection}{0}\relax }\@writefile{toc}{\contentsline {subsubsection}{GEO Satellites}{4}}
\abx@aux@cite{HarrisCapRock2014}
\@writefile{lof}{\defcounter {refsection}{0}\relax }\@writefile{lof}{\contentsline {figure}{\numberline {1.1}{\ignorespaces Satellite system. Source:~\cite {Fultron}\relax }}{5}}
\providecommand*\caption@xref[2]{\@setref\relax\@undefined{#1}}
\newlabel{fig:satellite}{{1.1}{5}}
\abx@aux@page{31}{5}
\abx@aux@page{32}{5}
\abx@aux@page{33}{5}
\abx@aux@page{35}{5}
\abx@aux@cite{Adams2015}
\@writefile{lof}{\defcounter {refsection}{0}\relax }\@writefile{lof}{\contentsline {figure}{\numberline {1.2}{\ignorespaces Satellite orbits. Source:~\cite {HarrisCapRock2014}\relax }}{6}}
\newlabel{fig:orbits}{{1.2}{6}}
\abx@aux@page{36}{6}
\@writefile{lof}{\defcounter {refsection}{0}\relax }\@writefile{lof}{\contentsline {figure}{\numberline {1.3}{\ignorespaces Sun outage scenario. Source:~\cite {Adams2015}\relax }}{6}}
\newlabel{fig:sun-outage}{{1.3}{6}}
\abx@aux@cite{Gyou2013a}
\abx@aux@page{38}{7}
\@writefile{toc}{\defcounter {refsection}{0}\relax }\@writefile{toc}{\contentsline {section}{\numberline {1.2}Multirotor Unmanned Aerial Vehicles}{7}}
\abx@aux@page{39}{7}
\abx@aux@cite{Yuan2013}
\abx@aux@cite{Sim2009}
\@writefile{lof}{\defcounter {refsection}{0}\relax }\@writefile{lof}{\contentsline {figure}{\numberline {1.4}{\ignorespaces Quadrotor motor rotation direction for basic flight.\relax }}{8}}
\newlabel{fig:motordirection}{{1.4}{8}}
\abx@aux@page{40}{8}
\@writefile{toc}{\defcounter {refsection}{0}\relax }\@writefile{toc}{\contentsline {subsection}{\numberline {1.2.1}Stability and Efficiency}{8}}
\abx@aux@page{41}{8}
\@writefile{lof}{\defcounter {refsection}{0}\relax }\@writefile{lof}{\contentsline {figure}{\numberline {1.5}{\ignorespaces Helicopter rotor pitch adjustments. Source:~\cite {Sim2009}\relax }}{9}}
\newlabel{fig:pitch}{{1.5}{9}}
\abx@aux@page{43}{9}
\abx@aux@page{44}{9}
\@writefile{toc}{\defcounter {refsection}{0}\relax }\@writefile{toc}{\contentsline {subsubsection}{Efficiency}{9}}
\abx@aux@page{45}{9}
\abx@aux@page{46}{10}
\@writefile{toc}{\defcounter {refsection}{0}\relax }\@writefile{toc}{\contentsline {subsection}{\numberline {1.2.2}Conclusions}{10}}
\@writefile{toc}{\defcounter {refsection}{0}\relax }\@writefile{toc}{\contentsline {section}{\numberline {1.3}Contributions}{10}}
\abx@aux@cite{Richtel2009}
\abx@aux@cite{Estrem2010}
\@writefile{toc}{\defcounter {refsection}{0}\relax }\@writefile{toc}{\contentsline {chapter}{\numberline {2}LITERATURE REVIEW}{12}}
\@writefile{lof}{\defcounter {refsection}{0}\relax }\@writefile{lof}{\addvspace {10\p@ }}
\@writefile{lot}{\defcounter {refsection}{0}\relax }\@writefile{lot}{\addvspace {10\p@ }}
\@writefile{toc}{\defcounter {refsection}{0}\relax }\@writefile{toc}{\contentsline {section}{\numberline {2.1}Current Solutions}{12}}
\abx@aux@page{47}{12}
\@writefile{toc}{\defcounter {refsection}{0}\relax }\@writefile{toc}{\contentsline {section}{\numberline {2.2}Portable Satellite Backhauling Solution}{12}}
\abx@aux@page{49}{12}
\abx@aux@page{50}{13}
\abx@aux@page{51}{13}
\abx@aux@page{52}{13}
\abx@aux@page{53}{13}
\abx@aux@page{55}{13}
\abx@aux@page{56}{13}
\abx@aux@page{57}{14}
\abx@aux@page{58}{14}
\abx@aux@cite{Huang2010}
\@writefile{lof}{\defcounter {refsection}{0}\relax }\@writefile{lof}{\contentsline {figure}{\numberline {2.1}{\ignorespaces e-Triage system overview. Source: \cite {Estrem2010}\relax }}{15}}
\newlabel{fig:etriage}{{2.1}{15}}
\abx@aux@page{61}{15}
\abx@aux@page{62}{15}
\@writefile{toc}{\defcounter {refsection}{0}\relax }\@writefile{toc}{\contentsline {section}{\numberline {2.3}Emergency Communication System Based on IP and Airship}{15}}
\abx@aux@page{64}{15}
\abx@aux@page{65}{15}
\abx@aux@page{66}{16}
\abx@aux@page{67}{16}
\abx@aux@page{68}{16}
\@writefile{lof}{\defcounter {refsection}{0}\relax }\@writefile{lof}{\contentsline {figure}{\numberline {2.2}{\ignorespaces Airship communication system. Source: \cite {Huang2010}\relax }}{16}}
\newlabel{fig:airship}{{2.2}{16}}
\abx@aux@page{71}{17}
\@writefile{toc}{\defcounter {refsection}{0}\relax }\@writefile{toc}{\contentsline {section}{\numberline {2.4}Feasibility}{17}}
\abx@aux@page{73}{17}
\abx@aux@page{75}{17}
\abx@aux@page{77}{17}
\abx@aux@page{79}{17}
\abx@aux@page{81}{18}
\abx@aux@page{83}{18}
\@writefile{toc}{\defcounter {refsection}{0}\relax }\@writefile{toc}{\contentsline {chapter}{\numberline {3}\uppercase {Proposed UAV Communication System}}{19}}
\@writefile{lof}{\defcounter {refsection}{0}\relax }\@writefile{lof}{\addvspace {10\p@ }}
\@writefile{lot}{\defcounter {refsection}{0}\relax }\@writefile{lot}{\addvspace {10\p@ }}
\@writefile{lof}{\defcounter {refsection}{0}\relax }\@writefile{lof}{\contentsline {figure}{\numberline {3.1}{\ignorespaces System Overview\relax }}{19}}
\newlabel{fig:system}{{3.1}{19}}
\@writefile{toc}{\defcounter {refsection}{0}\relax }\@writefile{toc}{\contentsline {section}{\numberline {3.1}Hardware}{19}}
\abx@aux@cite{3DR}
\abx@aux@cite{ArduCopter}
\@writefile{lof}{\defcounter {refsection}{0}\relax }\@writefile{lof}{\contentsline {figure}{\numberline {3.2}{\ignorespaces Assembled UAVs\relax }}{20}}
\newlabel{fig:drones}{{3.2}{20}}
\@writefile{toc}{\defcounter {refsection}{0}\relax }\@writefile{toc}{\contentsline {subsection}{\numberline {3.1.1}Autopilot}{21}}
\abx@aux@page{84}{21}
\abx@aux@page{85}{21}
\@writefile{lof}{\defcounter {refsection}{0}\relax }\@writefile{lof}{\contentsline {figure}{\numberline {3.3}{\ignorespaces 3DR Autopilot\relax }}{21}}
\newlabel{fig:3dr_autopilot}{{3.3}{21}}
\abx@aux@cite{QGroundControl2014}
\abx@aux@cite{Meier2011}
\@writefile{toc}{\defcounter {refsection}{0}\relax }\@writefile{toc}{\contentsline {subsection}{\numberline {3.1.2}Telemetry}{22}}
\abx@aux@page{86}{22}
\abx@aux@page{87}{22}
\@writefile{lof}{\defcounter {refsection}{0}\relax }\@writefile{lof}{\contentsline {figure}{\numberline {3.4}{\ignorespaces 3DR Telemetry Radio\relax }}{23}}
\newlabel{fig:3dr_telemetry}{{3.4}{23}}
\abx@aux@page{88}{23}
\abx@aux@cite{U-blox2012}
\abx@aux@page{89}{24}
\@writefile{toc}{\defcounter {refsection}{0}\relax }\@writefile{toc}{\contentsline {subsection}{\numberline {3.1.3}GPS}{24}}
\@writefile{lof}{\defcounter {refsection}{0}\relax }\@writefile{lof}{\contentsline {figure}{\numberline {3.5}{\ignorespaces 3DR GPS Module\relax }}{24}}
\newlabel{fig:3dr_gps}{{3.5}{24}}
\abx@aux@page{90}{24}
\abx@aux@cite{Sanner1999}
\abx@aux@cite{Tridgell}
\@writefile{toc}{\defcounter {refsection}{0}\relax }\@writefile{toc}{\contentsline {section}{\numberline {3.2}Software}{25}}
\abx@aux@page{91}{25}
\@writefile{toc}{\defcounter {refsection}{0}\relax }\@writefile{toc}{\contentsline {subsection}{\numberline {3.2.1}Python Application}{25}}
\abx@aux@page{92}{26}
\abx@aux@cite{Bupe2015}
\abx@aux@page{93}{28}
\abx@aux@cite{Gamma1994}
\newlabel{drone_loop}{{3.6a}{29}}
\newlabel{sub@drone_loop}{{(a)}{a}}
\newlabel{periodic_loop}{{3.6b}{29}}
\newlabel{sub@periodic_loop}{{(b)}{b}}
\@writefile{lof}{\defcounter {refsection}{0}\relax }\@writefile{lof}{\contentsline {figure}{\numberline {3.6}{\ignorespaces Main Control Loops\relax }}{29}}
\newlabel{fig_control_loops}{{3.6}{29}}
\@writefile{lof}{\defcounter {refsection}{0}\relax }\@writefile{lof}{\contentsline {subfigure}{\numberline{(a)}{\ignorespaces {Drone Control Loop}}}{29}}
\@writefile{lof}{\defcounter {refsection}{0}\relax }\@writefile{lof}{\contentsline {subfigure}{\numberline{(b)}{\ignorespaces {Periodic Control Loop}}}{29}}
\@writefile{lof}{\defcounter {refsection}{0}\relax }\@writefile{lof}{\contentsline {figure}{\numberline {3.7}{\ignorespaces Finite-state Machine Implementation\relax }}{29}}
\newlabel{fig:state_chart}{{3.7}{29}}
\abx@aux@page{94}{29}
\@writefile{toc}{\defcounter {refsection}{0}\relax }\@writefile{toc}{\contentsline {subsubsection}{Finite-State Machine Class}{30}}
\@writefile{lof}{\defcounter {refsection}{0}\relax }\@writefile{lof}{\contentsline {figure}{\numberline {3.8}{\ignorespaces State Diagram\relax }}{31}}
\newlabel{fig:state_diagram}{{3.8}{31}}
\abx@aux@cite{MacDonald1979}
\@writefile{toc}{\defcounter {refsection}{0}\relax }\@writefile{toc}{\contentsline {subsubsection}{Clustering}{32}}
\abx@aux@page{95}{32}
\abx@aux@page{96}{32}
\newlabel{eq:cluster_size}{{3.1}{32}}
\newlabel{fig:hex_cell}{{3.9a}{33}}
\newlabel{sub@fig:hex_cell}{{(a)}{a}}
\newlabel{fig:reuse_dist}{{3.9b}{33}}
\newlabel{sub@fig:reuse_dist}{{(b)}{b}}
\@writefile{lof}{\defcounter {refsection}{0}\relax }\@writefile{lof}{\contentsline {figure}{\numberline {3.9}{\ignorespaces Cellular Concept\relax }}{33}}
\newlabel{fig:cell_concept}{{3.9}{33}}
\@writefile{lof}{\defcounter {refsection}{0}\relax }\@writefile{lof}{\contentsline {subfigure}{\numberline{(a)}{\ignorespaces {Hexagonal Cell}}}{33}}
\@writefile{lof}{\defcounter {refsection}{0}\relax }\@writefile{lof}{\contentsline {subfigure}{\numberline{(b)}{\ignorespaces {Cell layout with cluster size $N = 7$}}}{33}}
\newlabel{eq:reuse_dist}{{3.2}{33}}
\@writefile{lof}{\defcounter {refsection}{0}\relax }\@writefile{lof}{\contentsline {figure}{\numberline {3.10}{\ignorespaces UAV formation with $N = 7$\relax }}{34}}
\newlabel{fig:cell_grid}{{3.10}{34}}
\newlabel{eq:lat}{{3.4}{34}}
\newlabel{eq:lon}{{3.5}{34}}
\@writefile{toc}{\defcounter {refsection}{0}\relax }\@writefile{toc}{\contentsline {subsection}{\numberline {3.2.2}User Interface}{35}}
\abx@aux@cite{W3}
\abx@aux@cite{Rakhunde2014}
\abx@aux@cite{Pimentel2012}
\abx@aux@page{97}{37}
\abx@aux@page{98}{37}
\abx@aux@page{99}{37}
\abx@aux@page{100}{37}
\abx@aux@cite{HTML5}
\@writefile{toc}{\defcounter {refsection}{0}\relax }\@writefile{toc}{\contentsline {subsubsection}{HTML5 WebSockets}{38}}
\abx@aux@page{101}{38}
\abx@aux@page{102}{38}
\@writefile{lof}{\defcounter {refsection}{0}\relax }\@writefile{lof}{\contentsline {figure}{\numberline {3.11}{\ignorespaces HTTP Polling vs WebSockets Bandwidth usage. Source:~\cite {HTML5}\relax }}{39}}
\newlabel{fig:websockets}{{3.11}{39}}
\@writefile{toc}{\defcounter {refsection}{0}\relax }\@writefile{toc}{\contentsline {section}{\numberline {3.3}System Operation}{39}}
\@writefile{toc}{\defcounter {refsection}{0}\relax }\@writefile{toc}{\contentsline {subsection}{\numberline {3.3.1}Launch Sequence}{40}}
\@writefile{lof}{\defcounter {refsection}{0}\relax }\@writefile{lof}{\contentsline {figure}{\numberline {3.12}{\ignorespaces Configuration Parameters\relax }}{40}}
\newlabel{fig:gui-config}{{3.12}{40}}
\newlabel{launch_step_1}{{3.13a}{41}}
\newlabel{sub@launch_step_1}{{(a)}{a}}
\newlabel{launch_step_2}{{3.13b}{41}}
\newlabel{sub@launch_step_2}{{(b)}{b}}
\newlabel{launch_step_2a}{{3.13c}{41}}
\newlabel{sub@launch_step_2a}{{(c)}{c}}
\newlabel{launch_step_3}{{3.13d}{41}}
\newlabel{sub@launch_step_3}{{(d)}{d}}
\@writefile{lof}{\defcounter {refsection}{0}\relax }\@writefile{lof}{\contentsline {figure}{\numberline {3.13}{\ignorespaces UAV launch sequence and configuration procedure.\relax }}{41}}
\newlabel{fig_launch}{{3.13}{41}}
\@writefile{lof}{\defcounter {refsection}{0}\relax }\@writefile{lof}{\contentsline {subfigure}{\numberline{(a)}{\ignorespaces {UAVs ready for launch.}}}{41}}
\@writefile{lof}{\defcounter {refsection}{0}\relax }\@writefile{lof}{\contentsline {subfigure}{\numberline{(b)}{\ignorespaces {UAVs at configuration altitudes.}}}{41}}
\@writefile{lof}{\defcounter {refsection}{0}\relax }\@writefile{lof}{\contentsline {subfigure}{\numberline{(c)}{\ignorespaces {UAVs at configuration altitudes.}}}{41}}
\@writefile{lof}{\defcounter {refsection}{0}\relax }\@writefile{lof}{\contentsline {subfigure}{\numberline{(d)}{\ignorespaces {UAVs in final formation.}}}{41}}
\@writefile{toc}{\defcounter {refsection}{0}\relax }\@writefile{toc}{\contentsline {subsection}{\numberline {3.3.2}Fail-safes}{42}}
\@writefile{toc}{\defcounter {refsection}{0}\relax }\@writefile{toc}{\contentsline {chapter}{\numberline {4}RESULTS}{43}}
\@writefile{lof}{\defcounter {refsection}{0}\relax }\@writefile{lof}{\addvspace {10\p@ }}
\@writefile{lot}{\defcounter {refsection}{0}\relax }\@writefile{lot}{\addvspace {10\p@ }}
\@writefile{toc}{\defcounter {refsection}{0}\relax }\@writefile{toc}{\contentsline {section}{\numberline {4.1}System Performance}{43}}
\@writefile{toc}{\defcounter {refsection}{0}\relax }\@writefile{toc}{\contentsline {section}{\numberline {4.2}User Interface}{44}}
\@writefile{lof}{\defcounter {refsection}{0}\relax }\@writefile{lof}{\contentsline {figure}{\numberline {4.1}{\ignorespaces HTML User Interface\relax }}{44}}
\newlabel{fig:gui}{{4.1}{44}}
\@writefile{toc}{\defcounter {refsection}{0}\relax }\@writefile{toc}{\contentsline {section}{\numberline {4.3}Simulator}{45}}
\@writefile{lof}{\defcounter {refsection}{0}\relax }\@writefile{lof}{\contentsline {figure}{\numberline {4.2}{\ignorespaces Simulation output for one UAV\relax }}{46}}
\newlabel{fig:gui-1}{{4.2}{46}}
\@writefile{toc}{\defcounter {refsection}{0}\relax }\@writefile{toc}{\contentsline {section}{\numberline {4.4}Remote Access}{46}}
\@writefile{lof}{\defcounter {refsection}{0}\relax }\@writefile{lof}{\contentsline {figure}{\numberline {4.3}{\ignorespaces Simulation output for four UAVs\relax }}{47}}
\newlabel{fig:gui-4}{{4.3}{47}}
\@writefile{lof}{\defcounter {refsection}{0}\relax }\@writefile{lof}{\contentsline {figure}{\numberline {4.4}{\ignorespaces Simulation output for seven UAVs\relax }}{47}}
\newlabel{fig:gui-7}{{4.4}{47}}
\@writefile{lof}{\defcounter {refsection}{0}\relax }\@writefile{lof}{\contentsline {figure}{\numberline {4.5}{\ignorespaces Simulation output for seventeen UAVs\relax }}{48}}
\newlabel{fig:gui-17}{{4.5}{48}}
\@writefile{lof}{\defcounter {refsection}{0}\relax }\@writefile{lof}{\contentsline {figure}{\numberline {4.6}{\ignorespaces System control via HTTP \relax }}{48}}
\newlabel{fig:remote}{{4.6}{48}}
\@writefile{toc}{\defcounter {refsection}{0}\relax }\@writefile{toc}{\contentsline {section}{\numberline {4.5}Hardware Performance}{49}}
\@writefile{lof}{\defcounter {refsection}{0}\relax }\@writefile{lof}{\contentsline {figure}{\numberline {4.7}{\ignorespaces UAV flying in PID tuning harness\relax }}{49}}
\newlabel{fig:tuning}{{4.7}{49}}
\@writefile{toc}{\defcounter {refsection}{0}\relax }\@writefile{toc}{\contentsline {subsection}{\numberline {4.5.1}Telemetry}{49}}
\abx@aux@cite{FAA}
\abx@aux@cite{Dorr2015}
\@writefile{toc}{\defcounter {refsection}{0}\relax }\@writefile{toc}{\contentsline {subsection}{\numberline {4.5.2}GPS}{50}}
\@writefile{toc}{\defcounter {refsection}{0}\relax }\@writefile{toc}{\contentsline {section}{\numberline {4.6}The State of UAVs in the United States and the FAA}{50}}
\abx@aux@page{104}{50}
\abx@aux@page{105}{50}
\abx@aux@cite{Washington}
\abx@aux@page{107}{51}
\abx@aux@page{108}{51}
\@writefile{toc}{\defcounter {refsection}{0}\relax }\@writefile{toc}{\contentsline {chapter}{\numberline {5}CONCLUSION}{52}}
\@writefile{lof}{\defcounter {refsection}{0}\relax }\@writefile{lof}{\addvspace {10\p@ }}
\@writefile{lot}{\defcounter {refsection}{0}\relax }\@writefile{lot}{\addvspace {10\p@ }}
\@writefile{toc}{\defcounter {refsection}{0}\relax }\@writefile{toc}{\contentsline {section}{\numberline {5.1}FUTURE WORK}{52}}
\@writefile{toc}{\defcounter {refsection}{0}\relax }\@writefile{toc}{\contentsline {chapter}{BIBLIOGRAPHY}{54}}
\@writefile{lof}{\defcounter {refsection}{0}\relax }\@writefile{lof}{\addvspace {10\p@ }}
\@writefile{lot}{\defcounter {refsection}{0}\relax }\@writefile{lot}{\addvspace {10\p@ }}
\abx@aux@page{109}{54}
\abx@aux@page{110}{54}
\abx@aux@page{111}{54}
\abx@aux@page{112}{54}
\abx@aux@page{113}{54}
\abx@aux@page{114}{54}
\abx@aux@page{115}{54}
\abx@aux@page{116}{54}
\abx@aux@page{117}{54}
\abx@aux@page{118}{55}
\abx@aux@page{119}{55}
\abx@aux@page{120}{55}
\abx@aux@page{121}{55}
\abx@aux@page{122}{55}
\abx@aux@page{123}{55}
\abx@aux@page{124}{55}
\abx@aux@page{125}{55}
\abx@aux@page{126}{55}
\abx@aux@page{127}{55}
\abx@aux@page{128}{55}
\abx@aux@page{129}{56}
\abx@aux@page{130}{56}
\abx@aux@page{131}{56}
\abx@aux@page{132}{56}
\abx@aux@page{133}{56}
\abx@aux@page{134}{56}
\abx@aux@page{135}{56}
\abx@aux@page{136}{56}
\abx@aux@page{137}{56}
\abx@aux@page{138}{56}
\abx@aux@page{139}{56}
\abx@aux@page{140}{56}
